{
  "name": "TiposAlerta",
  "plural": "TiposAlertas",
  "base": "PersistedModel",
  "idInjection": true,
  "mixins": {
    "TimeStamp": {
      "required": false,
      "validateUpsert": true,
      "silenceWarnings": false
    }
  },
  "properties": {
    "nombre": {
      "type": "string",
      "required": true
    }
  },
  "validations": [],
  "relations": {
    "alerta": {
      "type": "hasMany",
      "model": "Alerta",
      "foreignKey": "tiposAlertaId"
    }
  },
  "acls": [],
  "methods": {}
}
